…
    ## Rows: 68 Columns: 13
    ## ── Column specification ────────────────────────────────────────────────────────
    ## Delimiter: ","
    ## dbl (13): Year, Jan, Feb, Mar, Apr, May, Jun, Jul, Aug, Sep, Oct, Nov, Dec
    ## 
    ## ℹ Use `spec()` to retrieve the full column specification for this data.
    ## ℹ Specify the column types or set `show_col_types = FALSE` to quiet this message.

``` r
janitor::clean_names(unemployment_df)
```

    ## # A tibble: 68 × 13
    ##     year   jan   feb   mar   apr   may   jun   jul   aug   sep   oct   nov   dec
    ##    <dbl> <dbl> <dbl> <dbl> <dbl> <dbl> <dbl> <dbl> <dbl> <dbl> <dbl> <dbl> <dbl>
    ##  1  1948   3.4   3.8   4     3.9   3.5   3.6   3.6   3.9   3.8   3.7   3.8   4  
    ##  2  1949   4.3   4.7   5     5.3   6.1   6.2   6.7   6.8   6.6   7.9   6.4   6.6
    ##  3  1950   6.5   6.4   6.3   5.8   5.5   5.4   5     4.5   4.4   4.2   4.2   4.3
    ##  4  1951   3.7   3.4   3.4   3.1   3     3.2   3.1   3.1   3.3   3.5   3.5   3.1
    ##  5  1952   3.2   3.1   2.9   2.9   3     3     3.2   3.4   3.1   3     2.8   2.7
    ##  6  1953   2.9   2.6   2.6   2.7   2.5   2.5   2.6   2.7   2.9   3.1   3.5   4.5
    ##  7  1954   4.9   5.2   5.7   5.9   5.9   5.6   5.8   6     6.1   5.7   5.3   5  
    ##  8  1955   4.9   4.7   4.6   4.7   4.3   4.2   4     4.2   4.1   4.3   4.2   4.2
    ##  9  1956   4     3.9   4.2   4     4.3   4.3   4.4   4.1   3.9   3.9   4.3   4.2
    ## 10  1957   4.2   3.9   3.7   3.9   4.1   4.3   4.2   4.1   4.4   4.5   5.1   5.2
    ## # ℹ 58 more rows
…
    ## Rows: 822 Columns: 9
    ## ── Column specification ────────────────────────────────────────────────────────
    ## Delimiter: ","
    ## dbl  (8): prez_gop, gov_gop, sen_gop, rep_gop, prez_dem, gov_dem, sen_dem, r...
    ## date (1): mon
    ## 
    ## ℹ Use `spec()` to retrieve the full column specification for this data.
    ## ℹ Specify the column types or set `show_col_types = FALSE` to quiet this message.

``` r
janitor::clean_names(polsmonth_df) |>
separate(mon, into = c("year", "month", "day"))
```

    ## # A tibble: 822 × 11
    ##    year  month day   prez_gop gov_gop sen_gop rep_gop prez_dem gov_dem sen_dem
    ##    <chr> <chr> <chr>    <dbl>   <dbl>   <dbl>   <dbl>    <dbl>   <dbl>   <dbl>
    ##  1 1947  01    15           0      23      51     253        1      23      45
    ##  2 1947  02    15           0      23      51     253        1      23      45
    ##  3 1947  03    15           0      23      51     253        1      23      45
    ##  4 1947  04    15           0      23      51     253        1      23      45
    ##  5 1947  05    15           0      23      51     253        1      23      45
    ##  6 1947  06    15           0      23      51     253        1      23      45
    ##  7 1947  07    15           0      23      51     253        1      23      45
    ##  8 1947  08    15           0      23      51     253        1      23      45
    ##  9 1947  09    15           0      23      51     253        1      23      45
    ## 10 1947  10    15           0      23      51     253        1      23      45
    ## # ℹ 812 more rows
    ## # ℹ 1 more variable: rep_dem <dbl>
…
    ## Rows: 787 Columns: 2
    ## ── Column specification ────────────────────────────────────────────────────────
    ## Delimiter: ","
    ## chr (1): date
    ## dbl (1): close
    ## 
    ## ℹ Use `spec()` to retrieve the full column specification for this data.
    ## ℹ Specify the column types or set `show_col_types = FALSE` to quiet this message.

``` r
janitor::clean_names(snp_df)
```

    ## # A tibble: 787 × 2
    ##    date    close
    ##    <chr>   <dbl>
    ##  1 7/1/15  2080.
    ##  2 6/1/15  2063.
    ##  3 5/1/15  2107.
    ##  4 4/1/15  2086.
    ##  5 3/2/15  2068.
    ##  6 2/2/15  2104.
    ##  7 1/2/15  1995.
    ##  8 12/1/14 2059.
    ##  9 11/3/14 2068.
    ## 10 10/1/14 2018.
    ## # ℹ 777 more rows
